\BOOKMARK [1][-]{section.1}{State of the art and preliminary work}{}% 1
\BOOKMARK [1][-]{section.2}{Objectives and work programme}{}% 2
\BOOKMARK [2][-]{subsection.2.1}{Anticipated total duration of the project}{section.2}% 3
\BOOKMARK [2][-]{subsection.2.2}{Objectives}{section.2}% 4
\BOOKMARK [2][-]{subsection.2.3}{Work programme incl. proposed research methods}{section.2}% 5
\BOOKMARK [2][-]{subsection.2.4}{Data handling}{section.2}% 6
\BOOKMARK [2][-]{subsection.2.5}{Other information}{section.2}% 7
\BOOKMARK [2][-]{subsection.2.6}{Descriptions of proposed investigations involving experiments on humans, human materials or animals}{section.2}% 8
\BOOKMARK [2][-]{subsection.2.7}{Information on scientific and financial involvement of international cooperation partners}{section.2}% 9
\BOOKMARK [1][-]{section.3}{Bibliography}{}% 10
\BOOKMARK [1][-]{section.4}{Requested modules/funds}{}% 11
\BOOKMARK [2][-]{subsection.4.1}{Basic Module}{section.4}% 12
\BOOKMARK [3][-]{subsubsection.4.1.1}{Funding for staff}{subsection.4.1}% 13
\BOOKMARK [3][-]{subsubsection.4.1.2}{Funding for direct project costs}{subsection.4.1}% 14
\BOOKMARK [1][-]{section.5}{Project requirements}{}% 15
\BOOKMARK [2][-]{subsection.5.1}{Employment status information}{section.5}% 16
\BOOKMARK [2][-]{subsection.5.2}{First-time proposal data}{section.5}% 17
\BOOKMARK [2][-]{subsection.5.3}{Composition of the project group}{section.5}% 18
\BOOKMARK [2][-]{subsection.5.4}{Cooperation with other researchers}{section.5}% 19
\BOOKMARK [3][-]{subsubsection.5.4.1}{Researchers with whom you have agreed to cooperate on this project}{subsection.5.4}% 20
\BOOKMARK [3][-]{subsubsection.5.4.2}{Researchers with whom you have collaborated scientifically within the past three years}{subsection.5.4}% 21
\BOOKMARK [2][-]{subsection.5.5}{Scientific equipment}{section.5}% 22
\BOOKMARK [2][-]{subsection.5.6}{Project-relevant interests in commercial enterprises}{section.5}% 23
\BOOKMARK [1][-]{section.6}{Additional information}{}% 24
