\relax 
\providecommand\hyper@newdestlabel[2]{}
\catcode`"\active
\providecommand\HyperFirstAtBeginDocument{\AtBeginDocument}
\HyperFirstAtBeginDocument{\ifx\hyper@anchor\@undefined
\global\let\oldcontentsline\contentsline
\gdef\contentsline#1#2#3#4{\oldcontentsline{#1}{#2}{#3}}
\global\let\oldnewlabel\newlabel
\gdef\newlabel#1#2{\newlabelxx{#1}#2}
\gdef\newlabelxx#1#2#3#4#5#6{\oldnewlabel{#1}{{#2}{#3}}}
\AtEndDocument{\ifx\hyper@anchor\@undefined
\let\contentsline\oldcontentsline
\let\newlabel\oldnewlabel
\fi}
\fi}
\global\let\hyper@last\relax 
\gdef\HyperFirstAtBeginDocument#1{#1}
\providecommand\HyField@AuxAddToFields[1]{}
\providecommand\HyField@AuxAddToCoFields[2]{}
\bibstyle{alpha}
\select@language{english}
\@writefile{toc}{\select@language{english}}
\@writefile{lof}{\select@language{english}}
\@writefile{lot}{\select@language{english}}
\select@language{english}
\@writefile{toc}{\select@language{english}}
\@writefile{lof}{\select@language{english}}
\@writefile{lot}{\select@language{english}}
\bibdata{BIB/reference}
\@writefile{toc}{\contentsline {section}{\numberline {1}State of the art and preliminary work}{1}{section.1}}
\newlabel{section1}{{1}{1}{State of the art and preliminary work}{section.1}{}}
\@writefile{toc}{\contentsline {section}{\numberline {2}Objectives and work programme}{1}{section.2}}
\@writefile{toc}{\contentsline {subsection}{\numberline {2.1}Anticipated total duration of the project}{1}{subsection.2.1}}
\@writefile{toc}{\contentsline {subsection}{\numberline {2.2}Objectives}{1}{subsection.2.2}}
\@writefile{toc}{\contentsline {subsection}{\numberline {2.3}Work programme incl. proposed research methods}{1}{subsection.2.3}}
\@writefile{toc}{\contentsline {subsection}{\numberline {2.4}Data handling}{1}{subsection.2.4}}
\@writefile{toc}{\contentsline {subsection}{\numberline {2.5}Other information}{1}{subsection.2.5}}
\@writefile{toc}{\contentsline {subsection}{\numberline {2.6}Descriptions of proposed investigations involving experiments on humans, human materials or animals}{1}{subsection.2.6}}
\@writefile{toc}{\contentsline {subsection}{\numberline {2.7}Information on scientific and financial involvement of international cooperation partners}{1}{subsection.2.7}}
\@writefile{toc}{\contentsline {section}{\numberline {3}Bibliography}{1}{section.3}}
\@writefile{toc}{\contentsline {section}{\numberline {4}Requested modules/funds}{1}{section.4}}
\@writefile{toc}{\contentsline {subsection}{\numberline {4.1}Basic Module}{1}{subsection.4.1}}
\@writefile{toc}{\contentsline {subsubsection}{\numberline {4.1.1}Funding for staff}{1}{subsubsection.4.1.1}}
\@writefile{toc}{\contentsline {paragraph}{\numberline {4.1.1.1}Research staff}{1}{paragraph.4.1.1.1}}
\@writefile{toc}{\contentsline {paragraph}{\numberline {4.1.1.2}Student assistants}{2}{paragraph.4.1.1.2}}
\@writefile{toc}{\contentsline {subsubsection}{\numberline {4.1.2}Funding for direct project costs}{2}{subsubsection.4.1.2}}
\@writefile{toc}{\contentsline {paragraph}{\numberline {4.1.2.1}Equipment up to \officialeuro  10,000, software and consumables}{2}{paragraph.4.1.2.1}}
\@writefile{toc}{\contentsline {paragraph}{\numberline {4.1.2.2}Travel expenses}{2}{paragraph.4.1.2.2}}
\@writefile{toc}{\contentsline {paragraph}{\numberline {4.1.2.3}Visiting researchers}{2}{paragraph.4.1.2.3}}
\@writefile{toc}{\contentsline {paragraph}{\numberline {4.1.2.4}Other costs}{2}{paragraph.4.1.2.4}}
\@writefile{toc}{\contentsline {paragraph}{\numberline {4.1.2.5}Project-related publication expenses}{2}{paragraph.4.1.2.5}}
\@writefile{toc}{\contentsline {section}{\numberline {5}Project requirements}{2}{section.5}}
\@writefile{toc}{\contentsline {subsection}{\numberline {5.1}Employment status information}{2}{subsection.5.1}}
\@writefile{toc}{\contentsline {subsection}{\numberline {5.2}First-time proposal data}{2}{subsection.5.2}}
\@writefile{toc}{\contentsline {subsection}{\numberline {5.3}Composition of the project group}{2}{subsection.5.3}}
\@writefile{toc}{\contentsline {subsection}{\numberline {5.4}Cooperation with other researchers}{3}{subsection.5.4}}
\@writefile{toc}{\contentsline {subsubsection}{\numberline {5.4.1}Researchers with whom you have agreed to cooperate on this project}{3}{subsubsection.5.4.1}}
\newlabel{sssec:cooperation_existing}{{5.4.1}{3}{Researchers with whom you have agreed to cooperate on this project}{subsubsection.5.4.1}{}}
\@writefile{toc}{\contentsline {subsubsection}{\numberline {5.4.2}Researchers with whom you have collaborated scientifically within the past three years}{3}{subsubsection.5.4.2}}
\newlabel{sssec:cooperation_past}{{5.4.2}{3}{Researchers with whom you have collaborated scientifically within the past three years}{subsubsection.5.4.2}{}}
\@writefile{toc}{\contentsline {subsection}{\numberline {5.5}Scientific equipment}{3}{subsection.5.5}}
\@writefile{toc}{\contentsline {subsection}{\numberline {5.6}Project-relevant interests in commercial enterprises}{3}{subsection.5.6}}
\@writefile{toc}{\contentsline {section}{\numberline {6}Additional information}{3}{section.6}}
\newlabel{54.012.pages}{{3}{3}{Bibliography}{section.6}{}}
