\relax 
\providecommand\hyper@newdestlabel[2]{}
\catcode`"\active
\providecommand\HyperFirstAtBeginDocument{\AtBeginDocument}
\HyperFirstAtBeginDocument{\ifx\hyper@anchor\@undefined
\global\let\oldcontentsline\contentsline
\gdef\contentsline#1#2#3#4{\oldcontentsline{#1}{#2}{#3}}
\global\let\oldnewlabel\newlabel
\gdef\newlabel#1#2{\newlabelxx{#1}#2}
\gdef\newlabelxx#1#2#3#4#5#6{\oldnewlabel{#1}{{#2}{#3}}}
\AtEndDocument{\ifx\hyper@anchor\@undefined
\let\contentsline\oldcontentsline
\let\newlabel\oldnewlabel
\fi}
\fi}
\global\let\hyper@last\relax 
\gdef\HyperFirstAtBeginDocument#1{#1}
\providecommand\HyField@AuxAddToFields[1]{}
\providecommand\HyField@AuxAddToCoFields[2]{}
\bibstyle{alpha}
\select@language{english}
\@writefile{toc}{\select@language{english}}
\@writefile{lof}{\select@language{english}}
\@writefile{lot}{\select@language{english}}
\select@language{english}
\@writefile{toc}{\select@language{english}}
\@writefile{lof}{\select@language{english}}
\@writefile{lot}{\select@language{english}}
\@writefile{toc}{\contentsline {section}{\numberline {I.}Proposal data}{1}{section.1}}
\@writefile{toc}{\contentsline {section}{\numberline {1}Type of proposal}{1}{section.1}}
\@writefile{toc}{\contentsline {section}{\numberline {2}Porposal information}{1}{section.2}}
\@writefile{toc}{\contentsline {subsection}{\numberline {2.1}Title/duration}{1}{subsection.2.1}}
\@writefile{toc}{\contentsline {subsection}{\numberline {2.2}Subject classification}{2}{subsection.2.2}}
\@writefile{toc}{\contentsline {subsection}{\numberline {2.3}Keywords}{2}{subsection.2.3}}
\@writefile{toc}{\contentsline {subsection}{\numberline {2.4}Countries}{2}{subsection.2.4}}
\@writefile{toc}{\contentsline {subsection}{\numberline {2.5}Summary}{2}{subsection.2.5}}
\select@language{ngerman}
\@writefile{toc}{\select@language{ngerman}}
\@writefile{lof}{\select@language{ngerman}}
\@writefile{lot}{\select@language{ngerman}}
\@writefile{tdo}{\contentsline {todo}{TODO: German Abstract}{2}{section*.1}}
\pgfsyspdfmark {pgfid1}{19562753}{21624373}
\select@language{english}
\@writefile{toc}{\select@language{english}}
\@writefile{lof}{\select@language{english}}
\@writefile{lot}{\select@language{english}}
\@writefile{tdo}{\contentsline {todo}{TODO: English Abstract}{2}{section*.2}}
\pgfsyspdfmark {pgfid2}{19562753}{17643663}
\@writefile{toc}{\contentsline {section}{\numberline {3}Participating individuals}{2}{section.3}}
\@writefile{toc}{\contentsline {subsection}{\numberline {3.1}Applicants}{2}{subsection.3.1}}
\@writefile{toc}{\contentsline {subsection}{\numberline {3.2}Other participating individuals}{3}{subsection.3.2}}
\@writefile{toc}{\contentsline {subsection}{\numberline {3.3}Participating institutions}{3}{subsection.3.3}}
\newlabel{54.011.pages}{{3.3}{5}{}{subsection.3.3}{}}
